…
-   At first, we created a function called `gen_collatz` that takes a positive integer `n` as input where the input `n` is invalid to generate the Collatz sequence until it reaches 1.

-   Then we apply this function to all integers from 1 to 10,000 and store the results in a tibble named `collatz_df`. Here, we will include:

1.  `start` (starting integers) from 1 to 10000.
2.  `seq` (the Collatz sequence saved as a list) using `lapply()` which takes a list, vector, or data frame as input and gives output as a list object. [\^1]
3.  `length` (the length of the sequences) using `map_dbl()` which returns a numeric vector. [\^2]
4.  `parity` (the starting integers' identity as even or odd), and
5.  `max_val` (the maximum value reached in each sequences)

-   The `collatz_df` tibble will look like this:

``` r
collatz_df
# A tibble: 10,000 × 5
   start seq    length parity max_val
   <int> <list>  <dbl> <chr>    <dbl>
 1     1 <dbl>       1 Odd          1
 2     2 <dbl>       2 Even         2
 3     3 <dbl>       8 Odd         16
 4     4 <dbl>       3 Even         4
 5     5 <dbl>       6 Odd         16
 6     6 <dbl>       9 Even        16
 7     7 <dbl>      17 Odd         52
 8     8 <dbl>       4 Even         8
 9     9 <dbl>      20 Odd         52
10    10 <dbl>       7 Even        16
# ℹ 9,990 more rows
```
…
``` r
backtracks_df <- collatz_df %>%
  filter(pmap_lgl(list(seq, start), a_backtracking))
```

A tibble will be formed:

``` r
backtracks_df
# A tibble: 8,229 × 5
   start seq        length parity max_val
   <int> <list>      <dbl> <chr>    <dbl>
 1     6 <dbl [9]>       9 Even        16
 2     7 <dbl [17]>     17 Odd         52
 3     9 <dbl [20]>     20 Odd         52
 4    10 <dbl [7]>       7 Even        16
 5    11 <dbl [15]>     15 Odd         52
 6    12 <dbl [10]>     10 Even        16
 7    13 <dbl [10]>     10 Odd         40
 8    14 <dbl [18]>     18 Even        52
 9    15 <dbl [18]>     18 Odd        160
10    17 <dbl [13]>     13 Odd         52
# ℹ 8,219 more rows
# ℹ Use `print(n = ...)` to see more rows
```
…
